%YAML 1.1
%TAG !u! tag:unity3d.com,2011:
--- !u!21 &2100000
Material:
  serializedVersion: 6
  m_ObjectHideFlags: 0
  m_PrefabParentObject: {fileID: 0}
  m_PrefabInternal: {fileID: 0}
  m_Name: BiColorSurface SceneBiColorPlane
  m_Shader: {fileID: 4800000, guid: fc58adf7e45332844b6cce747672cd95, type: 3}
  m_ShaderKeywords: 
  m_LightmapFlags: 4
  m_EnableInstancingVariants: 0
  m_DoubleSidedGI: 0
  m_CustomRenderQueue: -1
  stringTagMap: {}
  disabledShaderPasses: []
  m_SavedProperties:
    serializedVersion: 3
    m_TexEnvs:
    - _Albedo0:
        m_Texture: {fileID: 1320099265, guid: d5cdedc40cd33b944904d15bc80c3fba, type: 3}
        m_Scale: {x: 1, y: 1}
        m_Offset: {x: 0, y: 0}
    - _Albedo1:
        m_Texture: {fileID: -2025868375, guid: 919bbd5eccd453542ac6f15a68338412, type: 3}
        m_Scale: {x: 1, y: 1}
        m_Offset: {x: 0, y: 0}
    - _AlgoTex:
        m_Texture: {fileID: 8600000, guid: d0c10761a8235f74b82545ce90f44d61, type: 2}
        m_Scale: {x: 1, y: 1}
        m_Offset: {x: 0, y: 0}
    - _BumpMap:
        m_Texture: {fileID: 0}
        m_Scale: {x: 1, y: 1}
        m_Offset: {x: 0, y: 0}
    - _DetailAlbedoMap:
        m_Texture: {fileID: 0}
        m_Scale: {x: 1, y: 1}
        m_Offset: {x: 0, y: 0}
    - _DetailMask:
        m_Texture: {fileID: 0}
        m_Scale: {x: 1, y: 1}
        m_Offset: {x: 0, y: 0}
    - _DetailNormalMap:
        m_Texture: {fileID: 0}
        m_Scale: {x: 1, y: 1}
        m_Offset: {x: 0, y: 0}
    - _EmissionMap:
        m_Texture: {fileID: 0}
        m_Scale: {x: 1, y: 1}
        m_Offset: {x: 0, y: 0}
    - _Height0:
        m_Texture: {fileID: 1935830055, guid: d5cdedc40cd33b944904d15bc80c3fba, type: 3}
        m_Scale: {x: 1, y: 1}
        m_Offset: {x: 0, y: 0}
    - _Height1:
        m_Texture: {fileID: 0}
        m_Scale: {x: 1, y: 1}
        m_Offset: {x: 0, y: 0}
    - _MainTex:
        m_Texture: {fileID: 8600000, guid: d0c10761a8235f74b82545ce90f44d61, type: 2}
        m_Scale: {x: 1, y: 1}
        m_Offset: {x: 0, y: 0}
    - _Metallic0:
        m_Texture: {fileID: -344864289, guid: d5cdedc40cd33b944904d15bc80c3fba, type: 3}
        m_Scale: {x: 1, y: 1}
        m_Offset: {x: 0, y: 0}
    - _Metallic1:
        m_Texture: {fileID: -1400311250, guid: 919bbd5eccd453542ac6f15a68338412, type: 3}
        m_Scale: {x: 1, y: 1}
        m_Offset: {x: 0, y: 0}
    - _MetallicGlossMap:
        m_Texture: {fileID: 0}
        m_Scale: {x: 1, y: 1}
        m_Offset: {x: 0, y: 0}
    - _Normal0:
        m_Texture: {fileID: -168017489, guid: d5cdedc40cd33b944904d15bc80c3fba, type: 3}
        m_Scale: {x: 1, y: 1}
        m_Offset: {x: 0, y: 0}
    - _Normal1:
        m_Texture: {fileID: 823668536, guid: 919bbd5eccd453542ac6f15a68338412, type: 3}
        m_Scale: {x: 1, y: 1}
        m_Offset: {x: 0, y: 0}
    - _Occlusion0:
        m_Texture: {fileID: -56192900, guid: d5cdedc40cd33b944904d15bc80c3fba, type: 3}
        m_Scale: {x: 1, y: 1}
        m_Offset: {x: 0, y: 0}
    - _Occlusion1:
        m_Texture: {fileID: 0}
        m_Scale: {x: 1, y: 1}
        m_Offset: {x: 0, y: 0}
    - _OcclusionMap:
        m_Texture: {fileID: 0}
        m_Scale: {x: 1, y: 1}
        m_Offset: {x: 0, y: 0}
    - _ParallaxMap:
        m_Texture: {fileID: 0}
        m_Scale: {x: 1, y: 1}
        m_Offset: {x: 0, y: 0}
    m_Floats:
    - _Advantage: 0.5
    - _BumpScale: 1
    - _Cutoff: 0.5
    - _DetailNormalMapScale: 1
    - _DstBlend: 0
    - _Fading: 0.083
    - _GlossMapScale: 1
    - _Glossiness: 0.5
    - _GlossyReflections: 1
    - _HeightStrength0: 0.5
    - _HeightStrength1: 0.5
    - _Metallic: 0
    - _Metallic0: 0
    - _Metallic1: 0
    - _Mode: 0
    - _NonLinearFactor: 0
    - _NormalStrength: 0.9
    - _NormalStrength0: 1
    - _NormalStrength1: 1
    - _NormalStrengthAlgo: 0.9
    - _OcclusionStrength: 1
    - _OcclusionStrength0: 0.5
    - _OcclusionStrength1: 0.5
    - _Parallax: 0.02
    - _Smoothness0: 0.557
    - _Smoothness1: 0.15
    - _SmoothnessTextureChannel: 0
    - _SpecularHighlights: 1
    - _SrcBlend: 1
    - _Threshold: 0.199
    - _UVSec: 0
    - _ZWrite: 1
    m_Colors:
    - _Color: {r: 1, g: 1, b: 1, a: 1}
    - _Color0: {r: 0.4044118, g: 0, b: 0, a: 1}
    - _Color1: {r: 0.9044118, g: 0.9044118, b: 0.9044118, a: 1}
    - _ColorTint0: {r: 1, g: 1, b: 1, a: 1}
    - _ColorTint1: {r: 1, g: 1, b: 1, a: 1}
    - _EmissionColor: {r: 0, g: 0, b: 0, a: 1}
